^C:\USERS\ZENBOOK\SOURCE\REPOS\LISTAT_TEST03\LISTAT_TEST03\LISTAT_TEST03.CPP|C:\USERS\ZENBOOK\SOURCE\REPOS\LISTAT_TEST03\LISTAT_TEST03\SOURCE.CPP
C:\USERS\ZENBOOK\SOURCE\REPOS\LISTAT_TEST03\LISTAT_TEST03\DEBUG\VC141.PDB
C:\USERS\ZENBOOK\SOURCE\REPOS\LISTAT_TEST03\LISTAT_TEST03\DEBUG\VC141.IDB
C:\USERS\ZENBOOK\SOURCE\REPOS\LISTAT_TEST03\LISTAT_TEST03\DEBUG\LISTAT_TEST03.OBJ
^C:\USERS\ZENBOOK\SOURCE\REPOS\LISTAT_TEST03\LISTAT_TEST03\LISTAT_TEST03.CPP
C:\USERS\ZENBOOK\SOURCE\REPOS\LISTAT_TEST03\LISTAT_TEST03\DEBUG\VC141.PDB
C:\USERS\ZENBOOK\SOURCE\REPOS\LISTAT_TEST03\LISTAT_TEST03\DEBUG\VC141.IDB
C:\USERS\ZENBOOK\SOURCE\REPOS\LISTAT_TEST03\LISTAT_TEST03\DEBUG\LISTAT_TEST03.OBJ
^C:\USERS\ZENBOOK\SOURCE\REPOS\LISTAT_TEST03\LISTAT_TEST03\SOURCE.CPP
C:\USERS\ZENBOOK\SOURCE\REPOS\LISTAT_TEST03\LISTAT_TEST03\DEBUG\VC141.PDB
C:\USERS\ZENBOOK\SOURCE\REPOS\LISTAT_TEST03\LISTAT_TEST03\DEBUG\VC141.IDB
C:\USERS\ZENBOOK\SOURCE\REPOS\LISTAT_TEST03\LISTAT_TEST03\DEBUG\SOURCE.OBJ
